protein	sequence_length	CQmean	POmean	LDmean	DSmean	VIIImean
[ RT-Cal protein ]	0	0.0	0.0	0.0	0.0	0.0
sp|O00115|DNS2A_HUMAN	360	0.000858001855428		1.44811997848		0.000586732404548
sp|O00151|PDLI1_HUMAN	329	0.0	0.0			0.0
sp|O00154|BACH_HUMAN	380					
sp|O00231|PSD11_HUMAN	422				0.0717555010176	0.0025950743117
sp|O00273|DFFA_HUMAN	331	0.0	0.0		0.0	0.0
sp|O00299|CLIC1_HUMAN	241		0.000909531236338			
sp|O00391|QSOX1_HUMAN	747					
sp|O00468|AGRIN_HUMAN	2067					
sp|O00487|PSDE_HUMAN	310	0.000829057359403	0.00197010186129		0.0154577161927	0.000630410061384
sp|O00625|PIR_HUMAN	290	0.0	0.0		0.0	0.0
sp|O14657|TOR1B_HUMAN	336	0.0	0.0		0.0	0.0
sp|O14672|ADA10_HUMAN	748					
sp|O14737|PDCD5_HUMAN	125					
sp|O14744|ANM5_HUMAN	637	0.00203195743791	0.00306369393395		0.0452589920104	
sp|O14818|PSA7_HUMAN	248					
sp|O14980|XPO1_HUMAN	1071					
sp|O15067|PUR4_HUMAN	1338	0.00353143953492	0.00577577886645			
sp|O15144|ARPC2_HUMAN	300		0.0			
sp|O15212|PFD6_HUMAN	129	0.0	0.0			0.0
sp|O15355|PPM1G_HUMAN	546	0.0				
sp|O15498|YKT6_HUMAN	198		0.00025025660321			
sp|O15511|ARPC5_HUMAN	151					
sp|O43175|SERA_HUMAN	533					0.00190475642601
sp|O43242|PSMD3_HUMAN	534					
sp|O43405|COCH_HUMAN	550		0.0010145205696	21.1624674112		0.000850764607221
sp|O43505|B4GA1_HUMAN	415			7.89112942086		
sp|O43707|ACTN4_HUMAN	911					
sp|O43765|SGTA_HUMAN	313		0.0		0.0	0.0
sp|O43852|CALU_HUMAN	315	0.0	0.0	0.0	0.0	0.0
sp|O75083|WDR1_HUMAN	606					
sp|O75223|GGCT_HUMAN	188		0.00014435565643		0.00920714081451	
sp|O75368|SH3L1_HUMAN	114	0.0	0.0		0.0	0.0
sp|O75487|GPC4_HUMAN	556					
sp|O75663|TIPRL_HUMAN	272	0.0	0.0	0.0	0.0	0.0
sp|O75787|RENR_HUMAN	350					0.000765373263298
sp|O75874|IDHC_HUMAN	414					
sp|O75882|ATRN_HUMAN	1429				0.129806262019	
sp|O76003|GLRX3_HUMAN	335					
sp|O94985|CSTN1_HUMAN	981			33.6932299408		
sp|O95084|PRS23_HUMAN	383					
sp|O95336|6PGL_HUMAN	258			2.3207194201		
sp|O95373|IPO7_HUMAN	1038	0.0	0.0		0.0	0.0
sp|O95394|AGM1_HUMAN	542					
sp|O95433|AHSA1_HUMAN	338					
sp|O95777|LSM8_HUMAN	96	0.0		0.0		
sp|O95831|AIFM1_HUMAN	613	0.0			0.0	0.0
sp|O95881|TXD12_HUMAN	172					
sp|P00001|ENOA_HUMAN	0	0.0	0.0	0.0	0.0	0.0
sp|P0000|ENOA_HUMAN	0	0.0	0.0	0.0	0.0	0.0
sp|P00338|LDHA_HUMAN	332			23.2434666893		
sp|P00390|GSHR_HUMAN	522		0.00118204975873		0.01511478213	
sp|P00441|SODC_HUMAN	154					
sp|P00451|FA8_HUMAN	2351	17.4507040514	29.112572284	1579.02965	347.917797977	20.9208057535
sp|P00491|PNPH_HUMAN	289					
sp|P00492|HPRT_HUMAN	218			5.19800997621		
sp|P00558|PGK1_HUMAN	417			39.4466672593		
sp|P01033|TIMP1_HUMAN	207	0.00113852849425		8.28663042964	0.0278820102022	0.00106098075264
sp|P01034|CYTC_HUMAN	146					
sp|P04066|FUCO_HUMAN	466	0.00329036171473	0.00485728025215		0.055837825688	0.00307333938517
sp|P04080|CYTB_HUMAN	98	9.62186538833e-05	0.000302953564257		0.00396157975012	0.000193220401352
sp|P04275|VWF_HUMAN	2813	0.144553023611	0.267135119536	3000.63390505	2.55980141423	1.43180250456
sp|P04406|G3P_HUMAN	335			22.7002381002		0.00634541461798
sp|P04818|TYSY_HUMAN	313	0.0005000690709	0.00097270063946		0.0114933764634	0.000452980878348
sp|P05067|A4_HUMAN	770				0.0360998757814	
sp|P05386|RLA1_HUMAN	114		0.0	0.0		0.0
sp|P05387|RLA2_HUMAN	115					
sp|P05388|RLA0_HUMAN	317			3.76924012027		
sp|P05455|LA_HUMAN	408					
sp|P06280|AGAL_HUMAN	429			9.47900799316		
sp|P06493|CDK1_HUMAN	297	0.000871942933858			0.0197880876208	0.000972068524699
sp|P06733|ENOA_HUMAN	434			36.1675444559		
sp|P06737|PYGL_HUMAN	847					0.02768551005
sp|P06748|NPM_HUMAN	294					
sp|P07093|GDN_HUMAN	398					
sp|P07108|ACBP_HUMAN	87	0.000383658980467	0.000337724854953		0.00424016993969	0.000240655083167
sp|P07195|LDHB_HUMAN	334			46.9758184272		
sp|P07237|PDIA1_HUMAN	508		0.00182102058586			
sp|P07339|CATD_HUMAN	412					
sp|P07437|TBB5_HUMAN	444				0.00935017733322	0.00327320897256
sp|P07686|HEXB_HUMAN	556					
sp|P07737|PROF1_HUMAN	140			6.20267912192		
sp|P07858|CATB_HUMAN	339					
sp|P07900|HS90A_HUMAN	732			12.3879080088		0.00376723392426
sp|P08238|HS90B_HUMAN	724		0.0042682490874	32.7288575822		0.00968393931924
sp|P08243|ASNS_HUMAN	561					
sp|P08572|CO4A2_HUMAN	1712		0.0029096278866		0.0693924974607	0.00397091278249
sp|P08670|VIME_HUMAN	466			10.4859962574		
sp|P09211|GSTP1_HUMAN	210			5.37110773838		
sp|P09486|SPRC_HUMAN	303	0.0027215295903			0.0412759051437	
sp|P09960|LKHA4_HUMAN	611					
sp|P10155|RO60_HUMAN	538	0.0	0.0			0.0
sp|P10586|PTPRF_HUMAN	1907					
sp|P10599|THIO_HUMAN	105			5.31110466789		
sp|P10646|TFPI1_HUMAN	304	0.0	0.0		0.0	0.0
sp|P10809|CH60_HUMAN	573	0.000665599074869			0.0169181742259	0.00079520127384
sp|P10909|CLUS_HUMAN	449	0.00174439440627	0.00298273907353	41.8650690308	0.0278285118549	0.0374689614404
sp|P11021|GRP78_HUMAN	654			13.9372489241		0.00224012949681
sp|P11047|LAMC1_HUMAN	1609					
sp|P11142|HSP7C_HUMAN	646			42.7555038231		0.00458729851624
sp|P11413|G6PD_HUMAN	515					
sp|P11586|C1TC_HUMAN	935					
sp|P11766|ADHX_HUMAN	374	0.00104410036822	0.00108573918631		0.0143890498149	0.00101268541118
sp|P12004|PCNA_HUMAN	261					
sp|P12081|SYHC_HUMAN	509		0.003411947644	4.63494071097	0.0613921783147	0.00308176525066
sp|P12110|CO6A2_HUMAN	1019	0.00281471498272	0.00654671361188		0.0742082409098	0.0050701291309
sp|P12277|KCRB_HUMAN	381			19.2077551316		
sp|P12814|ACTN1_HUMAN	892	0.00229772906061			0.0423432801961	
sp|P12955|PEPD_HUMAN	493					
sp|P12956|XRCC6_HUMAN	609				0.0215491053995	0.00088486195187
sp|P13010|XRCC5_HUMAN	732			5.95915685415		
sp|P13489|RINI_HUMAN	461					
sp|P13497|BMP1_HUMAN	986	0.00139282586357	0.00214103899588			0.00162300674534
sp|P13611|CSPG2_HUMAN	3396			25.4820110898		
sp|P13639|EF2_HUMAN	858			20.7382364444		0.00269303164028
sp|P13667|PDIA4_HUMAN	645					
sp|P13796|PLSL_HUMAN	627	0.00160564364797				
sp|P14174|MIF_HUMAN	115					0.0014726776665
sp|P14324|FPPS_HUMAN	419					
sp|P14543|NID1_HUMAN	1247			38.0148040692		
sp|P14550|AK1A1_HUMAN	325					
sp|P14618|KPYM_HUMAN	531			18.8664618497		0.00526638636077
sp|P14625|ENPL_HUMAN	803			8.97357567248		
sp|P15121|ALDR_HUMAN	316					
sp|P15170|ERF3A_HUMAN	499				0.0166047494844	
sp|P15291|B4GT1_HUMAN	398	0.00235899273917	0.00227514918467	3.91886013115	0.00917196037978	
sp|P15529|MCP_HUMAN	392	0.000744673928933	0.0010249306762		0.0165723101618	0.00107016168027
sp|P15531|NDKA_HUMAN	152	0.0		0.0	0.0	0.0
sp|P15880|RS2_HUMAN	293	0.000687553737074				
sp|P16035|TIMP2_HUMAN	220					
sp|P16152|CBR1_HUMAN	277		0.00133088272371		0.0240055853937	
sp|P16402|H13_HUMAN	221			1.43051137704		
sp|P16870|CBPE_HUMAN	476			19.7228399288		
sp|P16949|STMN1_HUMAN	149		0.000327725394544			
sp|P17174|AATC_HUMAN	413	0.00102405303238	0.00195827808747		0.0128104484106	
sp|P17812|PYRG1_HUMAN	591		0.0		0.0	
sp|P17858|PFKAL_HUMAN	780	0.00214758167845			0.150411163179	0.00249700867892
sp|P17900|SAP3_HUMAN	193					
sp|P17987|TCPA_HUMAN	556					
sp|P18065|IBP2_HUMAN	325			11.5721393034		
sp|P18077|RL35A_HUMAN	110	0.0	0.0		0.0	0.0
sp|P18124|RL7_HUMAN	248					
sp|P18206|VINC_HUMAN	1134			10.6846822934		
sp|P18669|PGAM1_HUMAN	254					
sp|P18827|SDC1_HUMAN	310		0.0			0.0
sp|P18850|ATF6A_HUMAN	670					
sp|P19021|AMD_HUMAN	973					
sp|P19022|CADH2_HUMAN	906	0.0024381148491		11.9458177891		
sp|P19338|NUCL_HUMAN	710	0.0	0.0		0.0	
sp|P19623|SPEE_HUMAN	302	0.00684272471689			0.117954894742	0.00727664663189
sp|P20618|PSB1_HUMAN	241					
sp|P20962|PTMS_HUMAN	102	0.0	0.0	0.0	0.0	0.0
sp|P22102|PUR2_HUMAN	1010					0.00361847337526
sp|P22314|UBA1_HUMAN	1058					0.00769872552036
sp|P23142|FBLN1_HUMAN	703					
sp|P23284|PPIB_HUMAN	216			5.55619678662		
sp|P23381|SYWC_HUMAN	471					
sp|P23396|RS3_HUMAN	243			3.71497602362		0.00125789624527
sp|P23526|SAHH_HUMAN	432			6.69976114026		
sp|P24534|EF1B_HUMAN	225					
sp|P24593|IBP5_HUMAN	272					
sp|P24666|PPAC_HUMAN	158	0.000412583870673	0.00121203152668	0.86081910364	0.0223468719955	0.000559794892212
sp|P25398|RS12_HUMAN	132	0.000614287599646			0.00564761892747	
sp|P25786|PSA1_HUMAN	263			4.68242274446		
sp|P25787|PSA2_HUMAN	234					
sp|P25788|PSA3_HUMAN	255			2.30185492313		
sp|P25789|PSA4_HUMAN	261					0.000544565347227
sp|P26038|MOES_HUMAN	577			6.44675246941		
sp|P26373|RL13_HUMAN	211					
sp|P26583|HMGB2_HUMAN	209	0.00032446126494	0.000252640021383		0.0122509479994	0.000659903043566
sp|P26599|PTBP1_HUMAN	531					
sp|P26639|SYTC_HUMAN	723					
sp|P26641|EF1G_HUMAN	437					
sp|P27348|1433T_HUMAN	245					
sp|P27797|CALR_HUMAN	417					
sp|P28066|PSA5_HUMAN	241		0.000478725557972			
sp|P28070|PSB4_HUMAN	264		0.000485663038375			0.00130578641028
sp|P28072|PSB6_HUMAN	239					
sp|P28074|PSB5_HUMAN	263					
sp|P28300|LYOX_HUMAN	417			0.0		
sp|P28799|GRN_HUMAN	593					
sp|P29401|TKT_HUMAN	623			16.2298061462		
sp|P30041|PRDX6_HUMAN	224	0.00106742989524		16.2245314424	0.0207491244293	0.000831149418072
sp|P30044|PRDX5_HUMAN	214	0.00077674147119	0.000984509289798		0.0149867371597	0.000857140416488
sp|P30050|RL12_HUMAN	165					
sp|P30086|PEBP1_HUMAN	187	0.000224092940204	0.000839544736143			
sp|P30101|PDIA3_HUMAN	505					
sp|P30153|2AAA_HUMAN	589	0.00387102615734				0.00185788002004
sp|P30566|PUR8_HUMAN	484					
sp|P31150|GDIA_HUMAN	447					
sp|P31939|PUR9_HUMAN	592	0.00983406106498		7.50227812403		
sp|P31946|1433B_HUMAN	246					
sp|P31948|STIP1_HUMAN	543		0.00157174258161		0.0145865770763	
sp|P31949|S10AB_HUMAN	105					
sp|P32119|PRDX2_HUMAN	198			7.39145829724		
sp|P33908|MA1A1_HUMAN	653					
sp|P34096|RNAS4_HUMAN	147	0.0	0.0		0.0	0.0
sp|P34932|HSP74_HUMAN	840	0.001875315996				
sp|P35052|GPC1_HUMAN	558					
sp|P35579|MYH9_HUMAN	1960					
sp|P35625|TIMP3_HUMAN	211					
sp|P35998|PRS7_HUMAN	433	0.0	0.0	0.0	0.0	0.0
sp|P36405|ARL3_HUMAN	182	0.0	0.0	0.0	0.0	0.0
sp|P36578|RL4_HUMAN	427			4.30674696969		
sp|P36871|PGM1_HUMAN	562					
sp|P36955|PEDF_HUMAN	418			17.0772306183		
sp|P37802|TAGL2_HUMAN	199			4.33085852935		
sp|P37837|TALDO_HUMAN	337	0.00166360807855	0.00203947979026		0.0266095625575	0.0016084768506
sp|P38606|VATA_HUMAN	617					
sp|P39019|RS19_HUMAN	145					
sp|P39023|RL3_HUMAN	403	0.000725107781233			0.0109153376783	
sp|P40227|TCPZ_HUMAN	531					
sp|P40429|RL13A_HUMAN	203					
sp|P40616|ARL1_HUMAN	181	0.0	0.0		0.0	0.0
sp|P40925|MDHC_HUMAN	334		0.00321052212789	3.98587341138		
sp|P41250|SYG_HUMAN	739					
sp|P42677|RS27_HUMAN	84	0.000210822511757	0.000332733690491		0.00192521774186	0.000162165357958
sp|P42785|PCP_HUMAN	496		0.00121421255771		0.0126410646452	0.000775723422449
sp|P43490|NAMPT_HUMAN	491					
sp|P43686|PRS6B_HUMAN	418	0.000522718065571				
sp|P45877|PPIC_HUMAN	212					
sp|P45974|UBP5_HUMAN	858					
sp|P46109|CRKL_HUMAN	303				0.0079166336424	
sp|P46777|RL5_HUMAN	297	0.000926442206294	0.000632704053126			0.00199621667204
sp|P46778|RL21_HUMAN	160	0.000189020758984	0.000288488615259			
sp|P46779|RL28_HUMAN	137	0.00125662712335	0.000417134610964		0.016141873621	0.00127624031068
sp|P46781|RS9_HUMAN	194					
sp|P46783|RS10_HUMAN	165					
sp|P46926|GNPI1_HUMAN	289	0.000540825699532				0.000495524864124
sp|P46976|GLYG_HUMAN	350	0.000911124892377		1.89218788062		0.00107127889812
sp|P47755|CAZA2_HUMAN	286	0.0				
sp|P48163|MAOX_HUMAN	572					
sp|P48637|GSHB_HUMAN	474	0.000427223417384	0.000791185086673		0.00997611043005	
sp|P48643|TCPE_HUMAN	541	0.00237884185247				0.00117205119886
sp|P48723|HSP13_HUMAN	471					0.00954315508612
sp|P48739|PIPNB_HUMAN	271	0.000667378486689	0.00167709766764			
sp|P49189|AL9A1_HUMAN	494					
sp|P49207|RL34_HUMAN	117					
sp|P49257|LMAN1_HUMAN	510					
sp|P49321|NASP_HUMAN	788					
sp|P49327|FAS_HUMAN	2511			24.7189629667		
sp|P49368|TCPG_HUMAN	545			9.43386243039		0.00165602708639
sp|P49419|AL7A1_HUMAN	539					
sp|P49458|SRP09_HUMAN	86					
sp|P49588|SYAC_HUMAN	968					
sp|P49720|PSB3_HUMAN	205					
sp|P49721|PSB2_HUMAN	201		0.00581204250252			0.00426636127821
sp|P49773|HINT1_HUMAN	126					
sp|P49915|GUAA_HUMAN	693		0.00127130430911			
sp|P50395|GDIB_HUMAN	445					
sp|P50502|F10A1_HUMAN	369		0.00109559192122			
sp|P50990|TCPQ_HUMAN	548			7.19157708305		
sp|P50991|TCPD_HUMAN	539			6.28633480817		0.00121967588418
sp|P51572|BAP31_HUMAN	246	0.0	0.0			0.0
sp|P51654|GPC3_HUMAN	580					
sp|P51858|HDGF_HUMAN	240					
sp|P51884|LUM_HUMAN	338	0.000811217717316	0.00122187585852		0.0219167342365	0.000937992519084
sp|P52209|6PGD_HUMAN	483					0.00238587009319
sp|P52292|IMA1_HUMAN	529		0.00576214323977	2.87904372766		0.002003846485
sp|P52565|GDIR1_HUMAN	204					
sp|P52788|SPSY_HUMAN	366					
sp|P53004|BIEA_HUMAN	296					
sp|P53396|ACLY_HUMAN	1101	0.00143284361635				
sp|P54577|SYYC_HUMAN	528					
sp|P54727|RD23B_HUMAN	409					
sp|P55060|XPO2_HUMAN	971	0.00372809146021	0.00365213018807			
sp|P55072|TERA_HUMAN	806			9.97651318321		
sp|P55263|ADK_HUMAN	362	0.0	0.0	0.0	0.0	0.0
sp|P57053|H2BFS_HUMAN	126					
sp|P58546|MTPN_HUMAN	118	0.0	0.0		0.0	0.0
sp|P60174|TPIS_HUMAN	286			7.71365819903		
sp|P60842|IF4A1_HUMAN	406			10.5740945144	0.0334908745231	0.00449826834985
sp|P60866|RS20_HUMAN	119	0.000405444752696	0.000436390817266	1.57545469634	0.00703488122072	0.000320455763094
sp|P60891|PRPS1_HUMAN	318					
sp|P60983|GMFB_HUMAN	142					
sp|P61081|UBC12_HUMAN	183	0.0				0.0
sp|P61086|UBE2K_HUMAN	200	0.0	0.0	0.0	0.0	0.0
sp|P61088|UBE2N_HUMAN	152					
sp|P61247|RS3A_HUMAN	264					0.00129850227238
sp|P61313|RL15_HUMAN	204	0.00146573640969				
sp|P61353|RL27_HUMAN	136					
sp|P61457|PHS_HUMAN	104	0.0	0.0	0.0	0.0	0.0
sp|P61586|RHOA_HUMAN	193	0.000460421838273		2.0608952976		
sp|P61604|CH10_HUMAN	102					
sp|P61758|PFD3_HUMAN	197					
sp|P61956|SUMO2_HUMAN	95					
sp|P61978|HNRPK_HUMAN	463	0.0		0.0		0.0
sp|P61981|1433G_HUMAN	247					
sp|P62081|RS7_HUMAN	194	0.000141789138131			0.0030836518095	0.000138343700752
sp|P62191|PRS4_HUMAN	440	0.0				0.0
sp|P62195|PRS8_HUMAN	406	0.000354198041955	0.000335595452967		0.00600935241105	
sp|P62249|RS16_HUMAN	146			1.76058081804		0.00275283631069
sp|P62258|1433E_HUMAN	255			10.4660808884		
sp|P62263|RS14_HUMAN	151			0.0	0.0	
sp|P62266|RS23_HUMAN	143					
sp|P62269|RS18_HUMAN	152					0.000520871709695
sp|P62277|RS13_HUMAN	151					
sp|P62310|LSM3_HUMAN	102					
sp|P62701|RS4X_HUMAN	263				0.0258131074161	
sp|P62753|RS6_HUMAN	249	0.000310242080807	0.000373702752902			
sp|P62805|H4_HUMAN	103			2.08192658441		0.00109417378503
sp|P62829|RL23_HUMAN	140					
sp|P62851|RS25_HUMAN	125	0.00130354166253			0.0305523573146	0.00135650005722
sp|P62857|RS28_HUMAN	69					
sp|P62906|RL10A_HUMAN	217					0.00113584689173
sp|P62913|RL11_HUMAN	178	0.00103866962587	0.000510401217992		0.0127128289295	
sp|P62937|PPIA_HUMAN	165			9.38034946248		0.00107964351224
sp|P62942|FKB1A_HUMAN	108	0.000322257544916	0.000380376103449		0.0138357852822	0.00100923765193
sp|P62987|RL40_HUMAN	128			2.08299262496		
sp|P63000|RAC1_HUMAN	192		0.000244126916055		0.00234157178673	
sp|P63151|2ABA_HUMAN	447	0.000333610244904			0.00543384702462	
sp|P63244|GBLP_HUMAN	317					0.00123190790101
sp|P63261|ACTG_HUMAN	375	0.00180784309255	0.00342100164746	123.229685484		0.0219610248071
sp|P63313|TYB10_HUMAN	44					
sp|P67775|PP2AA_HUMAN	309				0.0492693363351	
sp|P67936|TPM4_HUMAN	248			2.59081709878		
sp|P68363|TBA1B_HUMAN	451			0.0		0.0
sp|P68371|TBB4B_HUMAN	445					0.00213004105502
sp|P78371|TCPB_HUMAN	535			10.2560721903		
sp|P78417|GSTO1_HUMAN	241					0.00146730352863
sp|P83731|RL24_HUMAN	157		0.000450148444372			
sp|P84085|ARF5_HUMAN	180					
sp|P98172|EFNB1_HUMAN	346					
sp|Q01518|CAP1_HUMAN	475	0.00248725524383	0.00201327831813		0.0278249705281	0.00175643306375
sp|Q01581|HMCS1_HUMAN	520					
sp|Q02487|DSC2_HUMAN	901	0.0	0.0	0.0		0.0
sp|Q02790|FKBP4_HUMAN	459	0.00464973110948		6.08311503571		
sp|Q02809|PLOD1_HUMAN	727	0.00486887458568	0.00377025466084		0.102146813723	
sp|Q02818|NUCB1_HUMAN	461			8.24661653237		
sp|Q02878|RL6_HUMAN	288	0.00574724512798	0.00511281927674		0.0129769146193	
sp|Q04760|LGUL_HUMAN	184			2.40667422877		0.000537527862888
sp|Q04917|1433F_HUMAN	246				0.00618106558992	0.000392764725491
sp|Q06203|PUR1_HUMAN	517					
sp|Q06210|GFPT1_HUMAN	699	0.0	0.0		0.0	0.0
sp|Q06323|PSME1_HUMAN	249					
sp|Q06481|APLP2_HUMAN	763	0.00142000809838	0.000981835588892		0.0208514923924	0.00141330649334
sp|Q06830|PRDX1_HUMAN	199		0.00102517577992	10.9471364937		
sp|Q08380|LG3BP_HUMAN	585			70.00968956		
sp|Q10471|GALT2_HUMAN	571				0.0289309895041	
sp|Q12765|SCRN1_HUMAN	414	0.00284586705811	0.0024325678285		0.0471572935293	0.00256010091079
sp|Q12805|FBLN3_HUMAN	493					
sp|Q12841|FSTL1_HUMAN	308			6.16863634006	0.0225656391329	0.00132665367766
sp|Q13162|PRDX4_HUMAN	271	0.000682241612268	0.00102779761461			0.00117502025297
sp|Q13177|PAK2_HUMAN	524					
sp|Q13185|CBX3_HUMAN	183					
sp|Q13200|PSMD2_HUMAN	908					
sp|Q13263|TIF1B_HUMAN	835					
sp|Q13308|PTK7_HUMAN	1070					
sp|Q13347|EIF3I_HUMAN	325	0.0	0.0			0.0
sp|Q13444|ADA15_HUMAN	863	0.00438174902775	0.00643871266296		0.0624908853507	
sp|Q13740|CD166_HUMAN	583					
sp|Q13838|DX39B_HUMAN	428			3.20579824648		0.00111486568472
sp|Q14118|DAG1_HUMAN	895			26.5445075599		
sp|Q14126|DSG2_HUMAN	1118					
sp|Q14566|MCM6_HUMAN	821	0.0	0.0		0.0	0.0
sp|Q14974|IMB1_HUMAN	876			13.4087933932		
sp|Q15084|PDIA6_HUMAN	440			1.7949198855		
sp|Q15102|PA1B3_HUMAN	231					0.000684972260599
sp|Q15181|IPYR_HUMAN	289	0.0028744425349				
sp|Q15233|NONO_HUMAN	471	0.0	0.0		0.0	0.0
sp|Q15293|RCN1_HUMAN	331	0.0	0.0		0.0	0.0
sp|Q15365|PCBP1_HUMAN	356					
sp|Q15375|EPHA7_HUMAN	998	0.0	0.0	0.0		
sp|Q15435|PP1R7_HUMAN	360					
sp|Q15645|PCH2_HUMAN	432	0.0	0.0			0.0
sp|Q15691|MARE1_HUMAN	268				0.00695650858945	
sp|Q15818|NPTX1_HUMAN	432	0.00343172119383			0.0467892962348	0.00177599563504
sp|Q15819|UB2V2_HUMAN	145	0.0		0.0	0.0	0.0
sp|Q15907|RB11B_HUMAN	218					
sp|Q16270|IBP7_HUMAN	282	0.0	0.0			0.0
sp|Q16610|ECM1_HUMAN	540					
sp|Q16706|MA2A1_HUMAN	1144	0.0	0.0		0.0	0.0
sp|Q16769|QPCT_HUMAN	361					
sp|Q5JNZ5|RS26L_HUMAN	115	0.0	0.0	0.0	0.0	0.0
sp|Q5VTE0|EF1A3_HUMAN	462			9.93773542924		0.00620055761765
sp|Q6YHK3|CD109_HUMAN	1445	0.00601139274047	0.0070596007619			
sp|Q7KZF4|SND1_HUMAN	910	0.0	0.0		0.0	
sp|Q86SF2|GALT7_HUMAN	657					
sp|Q86UD1|OAF_HUMAN	273	0.00093717635955				
sp|Q86VP6|CAND1_HUMAN	1230					
sp|Q8IWU5|SULF2_HUMAN	870	0.00150432864458				0.00147724563495
sp|Q8NBJ4|GOLM1_HUMAN	401					
sp|Q8NCW5|NNRE_HUMAN	288					
sp|Q8NFZ8|CADM4_HUMAN	388		0.00171230799086	1.79492375191	0.00525989258501	0.00134084278456
sp|Q8TF72|SHRM3_HUMAN	1996	0.0	0.0	0.0	0.0	0.0
sp|Q8WUM4|PDC6I_HUMAN	868	0.0	0.0		0.0	0.0
sp|Q8WWL2|SPIR2_HUMAN	714	0.0	0.0	0.0	0.0	0.0
sp|Q8WZA0|LZIC_HUMAN	190	0.0	0.0	0.0	0.0	0.0
sp|Q92520|FAM3C_HUMAN	227			2.64628174172		
sp|Q92597|NDRG1_HUMAN	394					
sp|Q92598|HS105_HUMAN	858					
sp|Q92626|PXDN_HUMAN	1479	0.00463770877904	0.0033575653311		0.0566811882852	
sp|Q92688|AN32B_HUMAN	251		0.0017295030354		0.00735388942402	0.00109922995467
sp|Q92692|PVRL2_HUMAN	538	0.00103555285523	0.00077418640425	4.4663444291		0.000461500020671
sp|Q92743|HTRA1_HUMAN	480					
sp|Q92820|GGH_HUMAN	318			5.11575256205		
sp|Q92859|NEO1_HUMAN	1461	0.0	0.0	0.0		
sp|Q92905|CSN5_HUMAN	334					
sp|Q96C19|EFHD2_HUMAN	240	0.000138141555639	0.00101100252291		0.0150945782067	0.00100265338645
sp|Q96CN7|ISOC1_HUMAN	298	0.0	0.0		0.0	0.0
sp|Q96KP4|CNDP2_HUMAN	475					
sp|Q96MM7|H6ST2_HUMAN	605	0.00080334864476	0.00239077799354			0.000499078940459
sp|Q96P70|IPO9_HUMAN	1041	0.0			0.0	0.0
sp|Q99426|TBCB_HUMAN	244	0.00084300471741	0.00079006162207		0.0130496188371	
sp|Q99436|PSB7_HUMAN	277					
sp|Q99497|PARK7_HUMAN	189					
sp|Q99538|LGMN_HUMAN	433					
sp|Q99832|TCPH_HUMAN	543			8.45977381302		
sp|Q9BQT9|CSTN3_HUMAN	956	0.00293142268219			0.0554628535326	
sp|Q9BRA2|TXD17_HUMAN	123	0.00343707880857	0.00926181628594		0.0120430058112	
sp|Q9BS40|LXN_HUMAN	222	0.0	0.0		0.0	0.0
sp|Q9BTY2|FUCO2_HUMAN	467			3.81050812801		0.00116886643262
sp|Q9BV57|MTND_HUMAN	179	0.000365711509782			0.00328297057663	
sp|Q9BVA1|TBB2B_HUMAN	445					
sp|Q9BWD1|THIC_HUMAN	397	0.000695441750424	0.00103688398317	2.8105409644		
sp|Q9C005|DPY30_HUMAN	99		0.0			
sp|Q9H0U4|RAB1B_HUMAN	201	0.0013574721071	0.00351681693107	1.36326811419	0.0212102661548	0.00132934906585
sp|Q9H3G5|CPVL_HUMAN	476					
sp|Q9H3K6|BOLA2_HUMAN	86			0.42214915172		
sp|Q9H4F8|SMOC1_HUMAN	434					
sp|Q9H773|DCTP1_HUMAN	170					
sp|Q9HAV4|XPO5_HUMAN	1204					
sp|Q9HB71|CYBP_HUMAN	228					
sp|Q9HBR0|S38AA_HUMAN	1119					
sp|Q9HC38|GLOD4_HUMAN	313			2.20397430708		
sp|Q9NPH2|INO1_HUMAN	558	0.0	0.0		0.0	0.0
sp|Q9NQW7|XPP1_HUMAN	623					
sp|Q9NR45|SIAS_HUMAN	359	0.0	0.0		0.0	
sp|Q9NRX4|PHP14_HUMAN	125	0.0	0.0		0.0	
sp|Q9NSD9|SYFB_HUMAN	589	0.000715966646124				
sp|Q9P1F3|ABRAL_HUMAN	81					
sp|Q9UBR2|CATZ_HUMAN	303					
sp|Q9UBT2|SAE2_HUMAN	640					
sp|Q9UHG2|PCSK1_HUMAN	260					
sp|Q9UHI8|ATS1_HUMAN	967					
sp|Q9UHV9|PFD2_HUMAN	154					
sp|Q9UKY7|CDV3_HUMAN	258	0.0	0.0		0.0	0.0
sp|Q9UNN8|EPCR_HUMAN	238	0.0	0.0	0.0	0.0	0.0
sp|Q9UNW1|MINP1_HUMAN	487	0.0	0.0		0.0	0.0
sp|Q9UQ80|PA2G4_HUMAN	394					
sp|Q9Y230|RUVB2_HUMAN	463					
sp|Q9Y265|RUVB1_HUMAN	456					
sp|Q9Y266|NUDC_HUMAN	331					
sp|Q9Y3C6|PPIL1_HUMAN	166					
sp|Q9Y3C8|UFC1_HUMAN	167					
sp|Q9Y3F4|STRAP_HUMAN	350				0.0291906640517	
sp|Q9Y3U8|RL36_HUMAN	105	0.00062717927651	0.00142311610487		0.0153199279791	0.000781667084184
sp|Q9Y570|PPME1_HUMAN	386	0.0			0.0	0.0
sp|Q9Y5Z4|HEBP2_HUMAN	205					0.000791405620591
sp|Q9Y617|SERC_HUMAN	370			4.42023258873		
sp|Q9Y696|CLIC4_HUMAN	253					0.000301700627757
tr|A0A087WVQ6|A0A087WVQ6_HUMAN	1679					0.00317053300333
tr|A0A087WW66|A0A087WW66_HUMAN	953					
tr|A0A087WYR3|A0A087WYR3_HUMAN	222				0.00975148272891	
tr|A0A087WYT3|A0A087WYT3_HUMAN	164		0.000712428975195		0.00551864940545	0.000372248963797
tr|A0A087WYV8|A0A087WYV8_HUMAN	2911					
tr|A0A087WZH7|A0A087WZH7_HUMAN	330	0.0			0.0	0.0
tr|A0A087WZP6|A0A087WZP6_HUMAN	969					
tr|A0A087X054|A0A087X054_HUMAN	937	0.00516423311293				
tr|A0A087X0K1|A0A087X0K1_HUMAN	339					
tr|A0A087X0S5|A0A087X0S5_HUMAN	1026			97.4693024066		
tr|A0A087X178|A0A087X178_HUMAN	217					0.000319025728226
tr|A0A087X1J7|A0A087X1J7_HUMAN	225	0.0	0.0		0.0	0.0
tr|A0A087X1N8|A0A087X1N8_HUMAN	395					
tr|A0A087X1U6|A0A087X1U6_HUMAN	5088	0.0290557131113	0.0217883988478			
tr|A0A087X1Z3|A0A087X1Z3_HUMAN	254					
tr|A0A0A0MSQ0|A0A0A0MSQ0_HUMAN	617					
tr|A0A0A0MTC7|A0A0A0MTC7_HUMAN	1816					
tr|A0A0A0MTN3|A0A0A0MTN3_HUMAN	212					
tr|A0A0A0MTS2|A0A0A0MTS2_HUMAN	573			19.3777986241		
tr|A0A0B4J2G9|A0A0B4J2G9_HUMAN	0	0.0	0.0		0.0	
tr|A0A0C4DFP6|A0A0C4DFP6_HUMAN	637	0.000507405889165	0.00182386470839		0.024689609133	0.00128353852841
tr|A0A0C4DFV9|A0A0C4DFV9_HUMAN	266		0.000571388697987		0.0122022362002	0.00116443302204
tr|A0A0C4DG49|A0A0C4DG49_HUMAN	417					
tr|A0A0C4DGZ9|A0A0C4DGZ9_HUMAN	556	0.0	0.0		0.0	0.0
tr|A0A0G2JIW1|A0A0G2JIW1_HUMAN	642			52.4722624805		0.00348157540207
tr|A2AEA2|A2AEA2_HUMAN	372			3.70078069747		0.00132687653934
tr|A6NFX8|A6NFX8_HUMAN	232	0.00131229915835	0.00261688780128			0.00226429006172
tr|A6NJA2|A6NJA2_HUMAN	448	0.00159637620314	0.000724117956594		0.0283470385237	0.00114919500395
tr|A6NKB8|A6NKB8_HUMAN	611		0.00281095321965			
tr|A6NKE1|A6NKE1_HUMAN	118	0.0	0.0		0.0	0.0
tr|A6QRJ1|A6QRJ1_HUMAN	230					
tr|B1AH49|B1AH49_HUMAN	224				0.0	
tr|B1AHL2|B1AHL2_HUMAN	721					
tr|B1AJY7|B1AJY7_HUMAN	193		0.0		0.0	0.0
tr|B1AK88|B1AK88_HUMAN	301					
tr|B3KNJ4|B3KNJ4_HUMAN	299		0.00153167303815			
tr|B4DM58|B4DM58_HUMAN	129					
tr|B5MC59|B5MC59_HUMAN	82	0.0	0.0		0.0	0.0
tr|B5MDF5|B5MDF5_HUMAN	233			3.00641684444		0.00149437091085
tr|B7Z645|B7Z645_HUMAN	464	0.0	0.0			0.0
tr|B7Z7P8|B7Z7P8_HUMAN	423	0.000920385051069	0.00138519278991			0.000821318863608
tr|B7ZBH1|B7ZBH1_HUMAN	108		0.0	0.0	0.0	0.0
tr|B8ZZ75|B8ZZ75_HUMAN	194	0.0	0.0		0.0	0.0
tr|B8ZZN6|B8ZZN6_HUMAN	146					
tr|B8ZZQ6|B8ZZQ6_HUMAN	107					
tr|B8ZZU8|B8ZZU8_HUMAN	113			0.541165883549		
tr|C9IZG4|C9IZG4_HUMAN	135					
tr|C9J0K6|C9J0K6_HUMAN	155	0.000454167089603			0.0103022337796	0.00036282999063
tr|C9J168|C9J168_HUMAN	230	0.0	0.0		0.0	0.0
tr|C9J8S3|C9J8S3_HUMAN	160	0.0	0.0	0.0	0.0	
tr|C9J9K3|C9J9K3_HUMAN	264			2.03468232613		0.000547779747581
tr|C9JAK3|C9JAK3_HUMAN	221					
tr|C9JBI3|C9JBI3_HUMAN	187	0.000400155153564	0.00089295865333		0.00673268264738	0.000828026898181
tr|C9JIZ6|C9JIZ6_HUMAN	527			14.2249573636		
tr|C9JPM4|C9JPM4_HUMAN	127	0.0	0.0			
tr|C9JQD4|C9JQD4_HUMAN	144					
tr|C9JQU8|C9JQU8_HUMAN	160	0.0			0.0	0.0
tr|D6RD18|D6RD18_HUMAN	283					
tr|D6RD69|D6RD69_HUMAN	170	0.0	0.0	0.0	0.0	0.0
tr|D6REA1|D6REA1_HUMAN	468	0.0	0.0		0.0	
tr|D6RHI9|D6RHI9_HUMAN	254					0.000324034208007
tr|D6RIU4|D6RIU4_HUMAN	192	0.00107398094332	0.000668842875889		0.0167913076734	0.00146994073665
tr|E5RFZ1|E5RFZ1_HUMAN	163	0.000457247179276	0.00033058802761			0.000169842894245
tr|E5RGR0|E5RGR0_HUMAN	197	0.0	0.0		0.0	0.0
tr|E5RGS4|E5RGS4_HUMAN	117	0.0	0.0	0.0	0.0	0.0
tr|E5RI99|E5RI99_HUMAN	114	0.000177931898071	0.000331804232839		0.00406957461265	0.000251886764678
tr|E5RJD8|E5RJD8_HUMAN	119	0.000230819887319		3.16165997836		0.00059301024105
tr|E7EMM4|E7EMM4_HUMAN	370	0.000393013487074	0.000542981501037		0.00700631460163	
tr|E7EPB3|E7EPB3_HUMAN	124		0.000526586352174		0.00654213443246	0.000318588736528
tr|E7EQR4|E7EQR4_HUMAN	586		0.00127676819592			
tr|E7EQR8|E7EQR8_HUMAN	356	0.000301253223453			0.0113383920758	
tr|E7ESC6|E7ESC6_HUMAN	1088	0.0	0.0		0.0	0.0
tr|E7ETK0|E7ETK0_HUMAN	131					
tr|E7EUC7|E7EUC7_HUMAN	517					
tr|E7EV71|E7EV71_HUMAN	1353	0.0	0.0		0.0	0.0
tr|E7EX29|E7EX29_HUMAN	246			10.1728756189		
tr|E9PBF6|E9PBF6_HUMAN	387					
tr|E9PBI9|E9PBI9_HUMAN	172					
tr|E9PBS1|E9PBS1_HUMAN	413	0.00223184292764			0.0401773890392	
tr|E9PC52|E9PC52_HUMAN	416					
tr|E9PDE8|E9PDE8_HUMAN	813	0.000887245816375	0.000728629676731			
tr|E9PES6|E9PES6_HUMAN	153			0.704129563842		
tr|E9PGT1|E9PGT1_HUMAN	223					
tr|E9PIA8|E9PIA8_HUMAN	205	0.00264763475657	0.00492168397752		0.0679427737563	0.00386511925065
tr|E9PIF4|E9PIF4_HUMAN	267		0.00117872838169	1.37380073761	0.0176145217327	0.00179887665505
tr|E9PJA2|E9PJA2_HUMAN	285					
tr|E9PK25|E9PK25_HUMAN	204					
tr|E9PKZ0|E9PKZ0_HUMAN	205					0.00041771222005
tr|E9PLK3|E9PLK3_HUMAN	915			7.49503905656		
tr|E9PLL6|E9PLL6_HUMAN	108	0.000150952295043	0.000244399335793	0.871470594047	0.00430287631281	0.000134053906184
tr|E9PQX9|E9PQX9_HUMAN	185					
tr|E9PR30|E9PR30_HUMAN	98	0.0	0.0	0.0	0.0	0.0
tr|E9PS34|E9PS34_HUMAN	133	0.0	0.0	0.0	0.0	0.0
tr|F2Z388|F2Z388_HUMAN	96			0.0		
tr|F5GY55|F5GY55_HUMAN	1092					
tr|F5GZ09|F5GZ09_HUMAN	183				0.0	
tr|F5GZN3|F5GZN3_HUMAN	343		0.00143201503966			
tr|F5H1Y3|F5H1Y3_HUMAN	165		0.0	0.0	0.0	0.0
tr|F5H423|F5H423_HUMAN	210					
tr|F5H5D3|F5H5D3_HUMAN	519		0.0		0.0	0.0
tr|F5H6X6|F5H6X6_HUMAN	847	0.0	0.0		0.0	0.0
tr|F6RFD5|F6RFD5_HUMAN	135	0.000846625194657	0.000184267342202		0.00326624448149	0.000853334440909
tr|F6WQW2|F6WQW2_HUMAN	278					
tr|F6X3N5|F6X3N5_HUMAN	163	0.0	0.0		0.0	0.0
tr|F8W6I7|F8W6I7_HUMAN	307	0.000928176032669	0.00156385708242		0.0156851203871	0.000904628153483
tr|F8W727|F8W727_HUMAN	153	0.0			0.0	0.0
tr|F8W809|F8W809_HUMAN	498					
tr|F8W810|F8W810_HUMAN	466					
tr|F8W8D4|F8W8D4_HUMAN	422	0.0	0.0		0.0	0.0
tr|F8W8N3|F8W8N3_HUMAN	158	0.0	0.0	0.0	0.0	0.0
tr|F8WC54|F8WC54_HUMAN	628		0.000864214446467	2.35516736715	0.0178577703821	
tr|F8WDR7|F8WDR7_HUMAN	84	0.0	0.0		0.0	0.0
tr|F8WF69|F8WF69_HUMAN	260	0.000635261255845				0.000833625195753
tr|G3V150|G3V150_HUMAN	319	0.00074767010145				0.00121302539685
tr|G3V1D3|G3V1D3_HUMAN	756	0.0	0.0		0.0	0.0
tr|G3V213|G3V213_HUMAN	133	0.0	0.0	0.0	0.0	0.0
tr|G3V2U7|G3V2U7_HUMAN	129	0.000712556899694	0.000916771158951		0.00792981011311	0.000632760168844
tr|G3V576|G3V576_HUMAN	231					
tr|G3V5Q1|G3V5Q1_HUMAN	242	0.0	0.0		0.0	0.0
tr|G3V5Z7|G3V5Z7_HUMAN	252		0.00102360066919			
tr|G3XAI2|G3XAI2_HUMAN	1810	0.00502629858222			0.208095946355	0.00552841141691
tr|G3XAL0|G3XAL0_HUMAN	231	0.0	0.0			
tr|G5E9Q6|G5E9Q6_HUMAN	188					
tr|H0Y3T6|H0Y3T6_HUMAN	243	0.000255658799901	0.000230515929285		0.00699916171102	
tr|H0Y4R1|H0Y4R1_HUMAN	470	0.00131586040464	0.00167643021892		0.0267423171999	0.00151125317836
tr|H0Y614|H0Y614_HUMAN	81	0.0	0.0	0.0	0.0	0.0
tr|H0Y711|H0Y711_HUMAN	291	0.0	0.0	0.0	0.0	0.0
tr|H0Y7A7|H0Y7A7_HUMAN	187		0.000799624099201	3.24750623065		0.000903114263285
tr|H0Y8C6|H0Y8C6_HUMAN	1099	0.00350358101943	0.0047253474218		0.0889065365636	
tr|H0Y8X4|H0Y8X4_HUMAN	243	0.0		0.0	0.0	
tr|H0Y9I7|H0Y9I7_HUMAN	173					0.0
tr|H0Y9V9|H0Y9V9_HUMAN	189					
tr|H0YA96|H0YA96_HUMAN	210					
tr|H0YB13|H0YB13_HUMAN	123	0.0	0.0	0.0	0.0	0.0
tr|H0YBL1|H0YBL1_HUMAN	265				0.0	0.0
tr|H0YBX3|H0YBX3_HUMAN	127	0.0	0.0		0.0	0.0
tr|H0YC04|H0YC04_HUMAN	199	0.000294987074403	0.000388846749238		0.00592879043612	0.000527027419151
tr|H0YC42|H0YC42_HUMAN	278	0.0	0.0		0.0	0.0
tr|H0YDU8|H0YDU8_HUMAN	485	0.0			0.0	0.0
tr|H0YHX9|H0YHX9_HUMAN	213					
tr|H0YI98|H0YI98_HUMAN	268					
tr|H0YIV4|H0YIV4_HUMAN	385					0.000250142171312
tr|H0YL18|H0YL18_HUMAN	0					
tr|H0YLA2|H0YLA2_HUMAN	115	0.0	0.0	0.0	0.0	0.0
tr|H0YLA4|H0YLA4_HUMAN	336	0.0	0.0		0.0	0.0
tr|H0YN26|H0YN26_HUMAN	177			1.14000147977		0.000499433419232
tr|H0YN65|H0YN65_HUMAN	351					
tr|H0YN88|H0YN88_HUMAN	136	0.0	0.0		0.0	0.0
tr|H0YNW5|H0YNW5_HUMAN	167	0.000150030671361			0.00809560065262	0.000785443063531
tr|H3BPF6|H3BPF6_HUMAN	152					
tr|H3BPQ4|H3BPQ4_HUMAN	258	0.0	0.0	0.0	0.0	0.0
tr|H3BQB1|H3BQB1_HUMAN	162		0.0	0.0	0.0	0.0
tr|H3BQQ9|H3BQQ9_HUMAN	137	0.0	0.0	0.0	0.0	0.0
tr|H3BRU6|H3BRU6_HUMAN	301					
tr|H3BRV9|H3BRV9_HUMAN	107	0.0	0.0			
tr|H3BRY5|H3BRY5_HUMAN	281	0.00338799536962	0.00474868931379		0.0485999692351	0.00373683881232
tr|H3BS10|H3BS10_HUMAN	509					
tr|H3BSF1|H3BSF1_HUMAN	39				0.0	
tr|H7BY55|H7BY55_HUMAN	550	0.0	0.0		0.0	
tr|H7BY58|H7BY58_HUMAN	286		0.00262993950074		0.0267684319325	0.0031736430941
tr|H7BYX6|H7BYX6_HUMAN	725	0.0	0.0		0.0	0.0
tr|H7C2I1|H7C2I1_HUMAN	371	0.000708159464729			0.0128226371112	0.000603566396136
tr|H7C2W9|H7C2W9_HUMAN	108	0.000140257151578	0.000212005211281	0.501803060099	0.00303627743998	
tr|H7C2Y5|H7C2Y5_HUMAN	168	0.0	0.0	0.0	0.0	0.0
tr|H7C3P4|H7C3P4_HUMAN	496	0.00157818600376				
tr|H7C457|H7C457_HUMAN	280	0.0	0.0		0.0	0.0
tr|I3L0A0|I3L0A0_HUMAN	370	0.0	0.0	0.0	0.0	0.0
tr|I3L3P7|I3L3P7_HUMAN	100	0.000581137237952	0.000595488827084		0.0077403135115	0.00041164595877
tr|I3L4H1|I3L4H1_HUMAN	209	0.000158715373621	0.000457451735936			
tr|I3L504|I3L504_HUMAN	186					
tr|J3KMY5|J3KMY5_HUMAN	148					
tr|J3KND3|J3KND3_HUMAN	152					
tr|J3KNE3|J3KNE3_HUMAN	175			0.0		
tr|J3KNQ3|J3KNQ3_HUMAN	349	0.0	0.0		0.0	0.0
tr|J3KPA4|J3KPA4_HUMAN	412	0.0	0.0	0.0	0.0	0.0
tr|J3KPF3|J3KPF3_HUMAN	631	0.0	0.0		0.0	0.0
tr|J3KPS3|J3KPS3_HUMAN	368			11.197504657		
tr|J3KQ18|J3KQ18_HUMAN	132	0.000305524603891	0.000405859252245	0.751891259422		0.000362105563228
tr|J3KQ32|J3KQ32_HUMAN	416					
tr|J3KQN4|J3KQN4_HUMAN	142	0.0010387225515	0.000422489894206		0.0101304767356	
tr|J3KR44|J3KR44_HUMAN	272				0.0100998966352	
tr|J3KT51|J3KT51_HUMAN	104					
tr|J3KTA4|J3KTA4_HUMAN	614	0.0	0.0	0.0	0.0	0.0
tr|J3QL01|J3QL01_HUMAN	67	0.0		0.0		0.0
tr|J3QQ67|J3QQ67_HUMAN	190			1.33018356224		
tr|J3QQT2|J3QQT2_HUMAN	171	0.000223278172359	0.000243449625812		0.00374259390198	
tr|J3QR09|J3QR09_HUMAN	193		0.0	0.0		0.0
tr|J3QRI7|J3QRI7_HUMAN	107	0.000882833322535	0.000450963740278		0.0112697585803	0.000414883775957
tr|J3QRS3|J3QRS3_HUMAN	177				0.0072607509272	0.000533341144488
tr|J3QS03|J3QS03_HUMAN	184		0.0			
tr|J3QSU6|J3QSU6_HUMAN	2019	0.00934458693801	0.0193210598025		0.214810947565	
tr|K7EJM4|K7EJM4_HUMAN	30	0.0	0.0		0.0	0.0
tr|K7EK07|K7EK07_HUMAN	132	0.0	0.0	0.0		0.0
tr|K7EKB6|K7EKB6_HUMAN	177	0.0	0.0		0.0	0.0
tr|K7ELL7|K7ELL7_HUMAN	535	0.00174514054408	0.00159637535197		0.0215380623257	0.00364618804388
tr|K7ENJ0|K7ENJ0_HUMAN	139	0.0	0.0	0.0		0.0
tr|K7ENY5|K7ENY5_HUMAN	35	0.0	0.0	0.0		0.0
tr|K7EQ35|K7EQ35_HUMAN	167	0.0	0.0		0.0	0.0
tr|K7ER96|K7ER96_HUMAN	281		0.0	0.0		0.0
tr|K7ERI7|K7ERI7_HUMAN	95			0.936838956229		
tr|K7ERQ8|K7ERQ8_HUMAN	282	0.0	0.0	0.0	0.0	0.0
tr|K7ERT8|K7ERT8_HUMAN	175	0.000341006290931				
tr|K7ESE8|K7ESE8_HUMAN	231			0.0		
tr|K9J957|K9J957_HUMAN	231					
tr|M0QZC5|M0QZC5_HUMAN	118					
tr|M0QZG3|M0QZG3_HUMAN	105	0.0		0.0	0.0	0.0
tr|M0R0R2|M0R0R2_HUMAN	225					
tr|M0R192|M0R192_HUMAN	163					
tr|M0R3D6|M0R3D6_HUMAN	141					
tr|Q32Q12|Q32Q12_HUMAN	292			4.09549463268		
tr|Q5HYB6|Q5HYB6_HUMAN	232	0.00062851334316	0.000689967208393		0.0146665315686	0.000698668427025
tr|Q5JR95|Q5JR95_HUMAN	188	0.00043749085425	0.000438434543732		0.00814307533503	0.000368664706643
tr|Q5JXI8|Q5JXI8_HUMAN	257	0.0	0.0		0.0	0.0
tr|Q5LJA9|Q5LJA9_HUMAN	368	0.000443163648083	0.000694962353898		0.00960998752811	0.000384429067696
tr|Q5SSV3|Q5SSV3_HUMAN	226	0.000276681928843				0.000454011048034
tr|Q5SYZ4|Q5SYZ4_HUMAN	82	0.0	0.0		0.0	0.0
tr|Q5T0D2|Q5T0D2_HUMAN	169	0.000199864792504		0.993422623285	0.00309147120259	0.000252949037046
tr|Q5T5C7|Q5T5C7_HUMAN	536					
tr|Q5T5H1|Q5T5H1_HUMAN	187	0.000814881339177	0.000944233160516		0.00847702414037	0.000688732224581
tr|Q5T7C4|Q5T7C4_HUMAN	158	0.0	0.0		0.0	0.0
tr|Q5T7F0|Q5T7F0_HUMAN	704					
tr|Q5T8F0|Q5T8F0_HUMAN	225	0.00111167779326				0.000697295126563
tr|Q5T8U3|Q5T8U3_HUMAN	191					
tr|Q5T949|Q5T949_HUMAN	250	0.0	0.0		0.0	0.0
tr|Q5T9B7|Q5T9B7_HUMAN	210	0.0	0.0		0.0	0.0
tr|Q5W0H4|Q5W0H4_HUMAN	188					
tr|Q86UY0|Q86UY0_HUMAN	360	0.00163928535381	0.00123126559284		0.0194279749996	0.0011634580972
tr|Q8WVC2|Q8WVC2_HUMAN	81					
tr|R4GMR5|R4GMR5_HUMAN	287	0.0	0.0	0.0	0.0	0.0
tr|R4GMY8|R4GMY8_HUMAN	65	0.0	0.0	0.0	0.0	0.0
tr|R4GN08|R4GN08_HUMAN	77	0.0	0.0		0.0	0.0
tr|R4GNF9|R4GNF9_HUMAN	62		0.0		0.0	0.0
tr|R4GNH3|R4GNH3_HUMAN	423	0.0			0.0	0.0
tr|V9HW75|V9HW75_HUMAN	420					
tr|X1WI28|X1WI28_HUMAN	201	0.0				
tr|X5DQS5|X5DQS5_HUMAN	443		0.000524123438186			
